<svg xmlns="http://www.w3.org/2000/svg" viewBox="2325 2817 24.01 27.032">
  <defs>
    <style>
      .cls-1 {
        fill: #999;
        fill-rule: evenodd;
      }
    </style>
  </defs>
  <path id="Forma_2" data-name="Forma 2" class="cls-1" d="M923.856,48.234a10.915,10.915,0,0,1-3.487-8V35.821a7.144,7.144,0,0,0-4.236-6.488,10.073,10.073,0,0,0-1.736-.6v-.278a2.483,2.483,0,1,0-4.966,0v.325a9.944,9.944,0,0,0-1.562.559,7.429,7.429,0,0,0-4.4,6.481v4.418a10.827,10.827,0,0,1-3.33,8,.488.488,0,0,0-.123.5.494.494,0,0,0,.389.336l4.713.8c.878.15,1.686.272,2.456.373a4.934,4.934,0,0,0,8.856,0c.766-.1,1.571-.223,2.444-.372l4.713-.8a.494.494,0,0,0,.389-.336.487.487,0,0,0-.12-.505ZM910.424,28.455a1.49,1.49,0,1,1,2.98,0v.089a9.986,9.986,0,0,0-2.98.023Zm1.581,23.564a3.994,3.994,0,0,1-3.187-1.627,29.882,29.882,0,0,0,6.375,0,4,4,0,0,1-3.188,1.626Zm6.7-3.116c-.953.163-1.827.295-2.652.4h0q-.544.068-1.063.12h-.011c-.316.031-.626.056-.932.078l-.173.012c-.266.017-.528.031-.789.041l-.16.006c-.618.021-1.228.021-1.845,0l-.165-.007q-.385-.015-.778-.04l-.185-.012c-.3-.021-.6-.046-.908-.076h-.032c-.343-.034-.694-.074-1.055-.119h0c-.828-.1-1.705-.237-2.662-.4l-3.8-.65a11.736,11.736,0,0,0,2.98-8.017V35.821a6.43,6.43,0,0,1,3.819-5.592,8.965,8.965,0,0,1,1.737-.581h.015a9.135,9.135,0,0,1,3.765-.033h.019a9.058,9.058,0,0,1,1.9.613,6.231,6.231,0,0,1,3.656,5.592v4.418a11.868,11.868,0,0,0,3.135,8.017Z" transform="translate(1425.008 2791.028)"/>
</svg>
