<svg xmlns="http://www.w3.org/2000/svg" viewBox="359.795 7305.43 19.412 25.28">
  <defs>
    <style>
      .cls-1 {
        fill: #e9e9e0;
      }

      .cls-2 {
        fill: #d9d7ca;
      }

      .cls-3 {
        fill: #8697cb;
      }

      .cls-4 {
        fill: #0096e6;
      }

      .cls-5 {
        fill: #fff;
      }
    </style>
  </defs>
  <g id="doc" transform="translate(353.295 7305.43)">
    <path id="Path_287" data-name="Path 287" class="cls-1" d="M20.262,0H7.16C6.8,0,6.5.3,6.5.869V24.829a.68.68,0,0,0,.66.451H25.251a.68.68,0,0,0,.66-.451V5.859c0-.314-.042-.415-.116-.49L20.543.116A.4.4,0,0,0,20.262,0Z" transform="translate(0 0)"/>
    <path id="Path_288" data-name="Path 288" class="cls-2" d="M37.5.151V5.5h5.349Z" transform="translate(-17.006 -0.083)"/>
    <path id="Path_289" data-name="Path 289" class="cls-3" d="M14.66,11.9H11.951a.451.451,0,0,1,0-.9H14.66a.451.451,0,1,1,0,.9Z" transform="translate(-2.743 -6.034)"/>
    <path id="Path_290" data-name="Path 290" class="cls-3" d="M16.014,16.9H11.951a.451.451,0,0,1,0-.9h4.063a.451.451,0,1,1,0,.9Z" transform="translate(-2.743 -8.777)"/>
    <path id="Path_291" data-name="Path 291" class="cls-3" d="M24.951,16.91a.447.447,0,1,1,.321-.131A.475.475,0,0,1,24.951,16.91Z" transform="translate(-9.874 -8.784)"/>
    <path id="Path_292" data-name="Path 292" class="cls-3" d="M32.563,16.9H28.951a.451.451,0,0,1,0-.9h3.611a.451.451,0,1,1,0,.9Z" transform="translate(-12.069 -8.777)"/>
    <path id="Path_293" data-name="Path 293" class="cls-3" d="M11.951,31.91a.453.453,0,1,1,.321-.772.466.466,0,0,1,.131.321.447.447,0,0,1-.451.451Z" transform="translate(-2.743 -17.012)"/>
    <path id="Path_294" data-name="Path 294" class="cls-3" d="M19.563,31.9H15.951a.451.451,0,1,1,0-.9h3.611a.451.451,0,1,1,0,.9Z" transform="translate(-4.937 -17.006)"/>
    <path id="Path_295" data-name="Path 295" class="cls-3" d="M41.854,16.9h-.9a.451.451,0,1,1,0-.9h.9a.451.451,0,1,1,0,.9Z" transform="translate(-18.651 -8.777)"/>
    <path id="Path_296" data-name="Path 296" class="cls-3" d="M21.883,21.9H11.951a.451.451,0,0,1,0-.9h9.931a.451.451,0,1,1,0,.9Z" transform="translate(-2.743 -11.52)"/>
    <path id="Path_297" data-name="Path 297" class="cls-3" d="M39.66,21.9H36.951a.451.451,0,1,1,0-.9H39.66a.451.451,0,1,1,0,.9Z" transform="translate(-16.457 -11.52)"/>
    <path id="Path_298" data-name="Path 298" class="cls-3" d="M13.757,26.9H11.951a.451.451,0,0,1,0-.9h1.806a.451.451,0,1,1,0,.9Z" transform="translate(-2.743 -14.263)"/>
    <path id="Path_299" data-name="Path 299" class="cls-3" d="M24.466,26.9H19.951a.451.451,0,0,1,0-.9h4.514a.451.451,0,1,1,0,.9Z" transform="translate(-7.131 -14.263)"/>
    <path id="Path_300" data-name="Path 300" class="cls-3" d="M38.014,26.9H33.951a.451.451,0,1,1,0-.9h4.063a.451.451,0,1,1,0,.9Z" transform="translate(-14.811 -14.263)"/>
    <path id="Path_301" data-name="Path 301" class="cls-4" d="M25.251,46.674H7.16a.66.66,0,0,1-.66-.66V39H25.912v7.014A.66.66,0,0,1,25.251,46.674Z" transform="translate(0 -21.394)"/>
    <g id="Group_144" data-name="Group 144" transform="translate(10.502 19.303)">
      <path id="Path_302" data-name="Path 302" class="cls-5" d="M19.038,45.072a3.342,3.342,0,0,1-.121.96,2.386,2.386,0,0,1-.306.667,1.57,1.57,0,0,1-.417.423,2.09,2.09,0,0,1-.447.232,1.849,1.849,0,0,1-.4.1,2.634,2.634,0,0,1-.265.021H15.366V42.924h1.37a2.6,2.6,0,0,1,1.009.182,2.1,2.1,0,0,1,.722.484,1.988,1.988,0,0,1,.429.688A2.278,2.278,0,0,1,19.038,45.072Zm-2.2,1.858a1.226,1.226,0,0,0,1.086-.481,2.443,2.443,0,0,0,.333-1.395,2.363,2.363,0,0,0-.068-.562,1.2,1.2,0,0,0-.262-.5,1.384,1.384,0,0,0-.528-.364,2.272,2.272,0,0,0-.864-.139h-.432V46.93Z" transform="translate(-15.366 -42.85)"/>
      <path id="Path_303" data-name="Path 303" class="cls-5" d="M28.87,45.087a3.222,3.222,0,0,1-.145,1.012,2.064,2.064,0,0,1-.4.728,1.679,1.679,0,0,1-.6.438,1.973,1.973,0,0,1-1.5,0,1.679,1.679,0,0,1-.6-.438,2.068,2.068,0,0,1-.4-.728,3.6,3.6,0,0,1,0-2.021,2.058,2.058,0,0,1,.4-.725,1.716,1.716,0,0,1,.6-.442,1.935,1.935,0,0,1,1.5,0,1.716,1.716,0,0,1,.6.442,2.08,2.08,0,0,1,.4.725A3.2,3.2,0,0,1,28.87,45.087Zm-1.914,1.722a1.087,1.087,0,0,0,.435-.089.973.973,0,0,0,.37-.293,1.483,1.483,0,0,0,.256-.534,3.208,3.208,0,0,0,.1-.805,3.149,3.149,0,0,0-.1-.787,1.579,1.579,0,0,0-.247-.534.951.951,0,0,0-.358-.3,1,1,0,0,0-.423-.093,1.114,1.114,0,0,0-.435.086.932.932,0,0,0-.37.293,1.509,1.509,0,0,0-.256.534,3.15,3.15,0,0,0-.1.8,3.189,3.189,0,0,0,.1.79,1.547,1.547,0,0,0,.247.534.99.99,0,0,0,.358.3A.974.974,0,0,0,26.957,46.809Z" transform="translate(-20.695 -42.76)"/>
      <path id="Path_304" data-name="Path 304" class="cls-5" d="M38.768,46.92a1.684,1.684,0,0,1-.574.37,1.9,1.9,0,0,1-.691.123,1.867,1.867,0,0,1-.75-.148,1.679,1.679,0,0,1-.6-.438,2.068,2.068,0,0,1-.4-.728,3.6,3.6,0,0,1,0-2.021,2.058,2.058,0,0,1,.4-.725,1.706,1.706,0,0,1,.6-.441,1.837,1.837,0,0,1,.747-.151,1.911,1.911,0,0,1,.691.123,1.686,1.686,0,0,1,.574.37l-.512.457a.936.936,0,0,0-.343-.259.993.993,0,0,0-.392-.08,1.114,1.114,0,0,0-.435.086.932.932,0,0,0-.37.293,1.509,1.509,0,0,0-.256.534,3.15,3.15,0,0,0-.1.8,3.19,3.19,0,0,0,.1.79,1.547,1.547,0,0,0,.247.534.99.99,0,0,0,.358.3.965.965,0,0,0,.423.1,1.084,1.084,0,0,0,.417-.08.978.978,0,0,0,.355-.259Z" transform="translate(-26.47 -42.76)"/>
    </g>
  </g>
</svg>
