<svg xmlns="http://www.w3.org/2000/svg" viewBox="26.5 3183 23.506 29.5">
  <defs>
    <style>
      .cls-1 {
        fill: #999;
      }

      .cls-1, .cls-2 {
        fill-rule: evenodd;
      }

      .cls-2 {
        fill: none;
        stroke: #999;
      }
    </style>
  </defs>
  <g id="Group_443" data-name="Group 443" transform="translate(-143 2675)">
    <path id="_001" data-name="001" class="cls-1" d="M21.438,27.008H5.51A2.5,2.5,0,0,1,3,24.532V2.514A2.5,2.5,0,0,1,5.51.038h9.924a.5.5,0,1,1,0,1H5.51a1.5,1.5,0,0,0-1.5,1.485V24.532a1.5,1.5,0,0,0,1.5,1.485H21.438a1.5,1.5,0,0,0,1.5-1.485V8.657a.5.5,0,1,1,1,0V24.533a2.494,2.494,0,0,1-2.5,2.475ZM23.444,9.153h-8.01a.5.5,0,0,1-.5-.5V.748a.5.5,0,1,1,1,0V8.161h7.508a.5.5,0,1,1,0,.992Zm0,0A.5.5,0,0,1,23.085,9L15.075.88a.491.491,0,0,1,.01-.7.506.506,0,0,1,.709.01L23.8,8.313a.491.491,0,0,1-.01.7.5.5,0,0,1-.346.14Z" transform="translate(169 507.962)"/>
    <path id="Rounded_Rectangle_1" data-name="Rounded Rectangle 1" class="cls-2" d="M19,30H3a3,3,0,0,1-3-3V7" transform="translate(170 507)"/>
  </g>
</svg>
