<svg xmlns="http://www.w3.org/2000/svg" viewBox="26 12006 22.006 28.97">
  <defs>
    <style>
      .cls-1 {
        fill: #ff5200;
        fill-rule: evenodd;
      }
    </style>
  </defs>
  <g id="Group_96" data-name="Group 96" transform="translate(-173 11461)">
    <path id="Forma_1_copy" data-name="Forma 1 copy" class="cls-1" d="M19.438,29.008H2.51A2.5,2.5,0,0,1,0,26.532V2.514A2.5,2.5,0,0,1,2.51.038H13.434a.5.5,0,1,1,0,1H2.51a1.5,1.5,0,0,0-1.5,1.485V26.532a1.5,1.5,0,0,0,1.5,1.486H19.438a1.5,1.5,0,0,0,1.5-1.486V8.657a.5.5,0,0,1,1,0V26.533A2.494,2.494,0,0,1,19.438,29.008ZM21.444,9.153h-8.01a.5.5,0,0,1-.5-.5V.748a.5.5,0,1,1,1,0V8.161h7.508a.5.5,0,1,1,0,.992Zm0,0A.505.505,0,0,1,21.085,9L13.075.88a.491.491,0,0,1,.01-.7.5.5,0,0,1,.709.01L21.8,8.313a.491.491,0,0,1-.01.7A.505.505,0,0,1,21.444,9.153Z" transform="translate(199 544.962)"/>
    <path id="Rectangle_8" data-name="Rectangle 8" class="cls-1" d="M1,10H14v1H1Zm0,3H8v1H1Zm0,3H14v1H1Zm0,3H8v1H1Zm0,3H14v1H1Zm0,3H8v1H1Z" transform="translate(199 545)"/>
  </g>
</svg>
