<svg xmlns="http://www.w3.org/2000/svg" viewBox="973 7305 20.206 26.315">
  <defs>
    <style>
      .cls-1 {
        fill: #e9e9e0;
      }

      .cls-2 {
        fill: #d9d7ca;
      }

      .cls-3 {
        fill: #cc4b4c;
      }

      .cls-4 {
        fill: #fff;
      }
    </style>
  </defs>
  <g id="pdf" transform="translate(966.5 7305)">
    <path id="Path_312" data-name="Path 312" class="cls-1" d="M20.825,0H7.187C6.808,0,6.5.308,6.5.905v24.94a.708.708,0,0,0,.687.47H26.019a.708.708,0,0,0,.687-.47V6.1c0-.327-.044-.432-.121-.51L21.117.121A.415.415,0,0,0,20.825,0Z"/>
    <path id="Path_313" data-name="Path 313" class="cls-2" d="M37.5.151V5.719h5.568Z" transform="translate(-16.433 -0.08)"/>
    <path id="Path_314" data-name="Path 314" class="cls-3" d="M18.4,19.321h0a.754.754,0,0,1-.454-.153,1.126,1.126,0,0,1-.524-1.054c.086-.765,1.031-1.566,2.812-2.381a31.543,31.543,0,0,0,1.78-5.052c-.469-1.021-.925-2.345-.593-3.122a.9.9,0,0,1,.533-.571,2.307,2.307,0,0,1,.477-.081c.237,0,.445.3.593.493s.453.551-.175,3.2a15.016,15.016,0,0,0,2.391,3.553,9.142,9.142,0,0,1,1.578-.168c.736,0,1.182.172,1.364.525A.951.951,0,0,1,28,15.522a1.249,1.249,0,0,1-1.043.56,3.124,3.124,0,0,1-1.979-1.074,22.516,22.516,0,0,0-4.148,1.326,13.333,13.333,0,0,1-1.12,2C19.23,19.006,18.814,19.321,18.4,19.321Zm1.251-2.409c-1,.564-1.413,1.028-1.443,1.289,0,.043-.017.157.2.325C18.483,18.5,18.892,18.318,19.654,16.912Zm6.408-2.087c.383.295.476.444.727.444a.708.708,0,0,0,.569-.207.744.744,0,0,0,.108-.2c-.058-.031-.134-.093-.552-.093A6.871,6.871,0,0,0,26.062,14.825Zm-3.51-3.093A33.5,33.5,0,0,1,21.3,15.286a23.479,23.479,0,0,1,3.053-.949A16.085,16.085,0,0,1,22.552,11.732Zm-.285-3.976a1.127,1.127,0,0,0,.045,1.511C22.758,8.273,22.287,7.749,22.267,7.756Z" transform="translate(-5.788 -3.662)"/>
    <path id="Path_315" data-name="Path 315" class="cls-3" d="M26.019,46.988H7.187A.687.687,0,0,1,6.5,46.3V39H26.706v7.3A.687.687,0,0,1,26.019,46.988Z" transform="translate(0 -20.674)"/>
    <g id="Group_146" data-name="Group 146" transform="translate(10.844 20.17)">
      <path id="Path_316" data-name="Path 316" class="cls-4" d="M16.515,47.659h-.771V42.924h1.362a1.911,1.911,0,0,1,.6.1,1.624,1.624,0,0,1,.53.289,1.509,1.509,0,0,1,.379.466,1.29,1.29,0,0,1,.145.614,1.679,1.679,0,0,1-.122.652,1.363,1.363,0,0,1-.341.492,1.535,1.535,0,0,1-.527.308,2.027,2.027,0,0,1-.681.109h-.572v1.709Zm0-4.15v1.876h.707a.84.84,0,0,0,.28-.048.7.7,0,0,0,.254-.157.77.77,0,0,0,.186-.3,1.445,1.445,0,0,0,.07-.485,1.312,1.312,0,0,0-.032-.266.769.769,0,0,0-.132-.289.779.779,0,0,0-.28-.231,1.039,1.039,0,0,0-.476-.093h-.578Z" transform="translate(-15.744 -42.924)"/>
      <path id="Path_317" data-name="Path 317" class="cls-4" d="M27.907,45.16a3.478,3.478,0,0,1-.125,1,2.484,2.484,0,0,1-.318.694,1.634,1.634,0,0,1-.434.44,2.175,2.175,0,0,1-.466.241,1.924,1.924,0,0,1-.411.1,2.738,2.738,0,0,1-.276.022H24.084V42.924H25.51a2.71,2.71,0,0,1,1.05.189,2.181,2.181,0,0,1,.752.5,2.07,2.07,0,0,1,.446.716A2.372,2.372,0,0,1,27.907,45.16ZM25.62,47.093a1.276,1.276,0,0,0,1.131-.5,2.543,2.543,0,0,0,.347-1.452,2.459,2.459,0,0,0-.07-.585,1.251,1.251,0,0,0-.273-.523,1.441,1.441,0,0,0-.549-.379,2.365,2.365,0,0,0-.9-.145h-.45v3.585Z" transform="translate(-20.165 -42.924)"/>
      <path id="Path_318" data-name="Path 318" class="cls-4" d="M35.382,43.509V45h1.979v.527H35.382v2.133H34.6V42.924h2.961v.585Z" transform="translate(-25.738 -42.924)"/>
    </g>
  </g>
</svg>
