<svg xmlns="http://www.w3.org/2000/svg" viewBox="145 8691 11.441 8.586">
  <defs>
    <style>
      .cls-1 {
        fill: #ff5200;
        fill-rule: evenodd;
      }
    </style>
  </defs>
  <path id="approved" class="cls-1" d="M176.369,204.707a1.011,1.011,0,0,0-1.428,0l-5.851,5.852-2.141-2.141a1.01,1.01,0,0,0-1.428,1.428l2.856,2.856a1.009,1.009,0,0,0,1.428,0l6.565-6.566a1.01,1.01,0,0,0,0-1.428Z" transform="translate(-20.225 8486.588)"/>
</svg>
